04637d4d3202982bddc45e96ef40dafe2f913ed226f3b585e6
f5c42b609de7647c155dd2c4906c644d1f5cc5cd773fd1706f
c1ad3f505d3957fd376789373455344e3e1eff3d3f87ba7d4c
8b51a88ccef0556643e6a8cc7d9b6ac03fdbea8a2ce1a218f3
9eb8db0023bf37c0fa5583674bf8d4f9c1d52d2ffa6b110883
1f14fc27248dfeec982d46a4d1684757e2558f8b6eb4053752
8b8083e60a6ab8c554f82b6dd6e242909384a1e48aec592eff
f806df33af14b5e4a4542c44580744eed4311b6630f45249a1
bd7910d321d7ec049765b0283b1f1a875f44899ec42ffe0378
edcfa9fa156c35fe8b47a0bc8c2cd1e2aaba9c8dad5d0d6410
9772e481f1eef09cafb0d1db4b676a5b67cbddbf676a8bfff6
5ea9427596b627593b4a84b176ddcea053ab1bbc25c74257b4
d07bc3ec5d3dab507d3541d70b848dc98ee288b7536251694b
054836ff4be38f6d8a4d2ea6f9ee9d9970d6d2e329238ba55c
2e1e5cdce96116d8c69981c8aef3de2fe19458fb67d4861c82
88fe300cc2e4a168ffc60602e808d61be071df5a49d52c8bc4
86efbfa8e91b53cc0ac34c8e38c8492327268803ff6b4f5d33
55416824f2947fd006950512bc93c7a3213bbc47e8b9a0cd14
8a6313db24a2d3952643a7b8ba046e7cc41b4f2c74604ef9bd
494036799f1e269557dd1275c5dced735249ccac3b316138b7
e9528acc42ac0d273132d65eda2b678c781b52db1a9e155f20
3137a4c63b0a36e170767e5bbd795953fcd8aca47e91c37bec
fa87561656df19d6361f8a73fe393751e515ffb0261a8a75f2
8e048d4fccfd88491f837bfe76e651244c025ffaf99f39a207
008fce3b7477ba2ad5467ab0d8c42d7e302a7d9cafbe69f5ab
4ef490eeabef0249b4feff430ead87ff350cda7e7f4d95a752
977082a7108241bc409147511ff2d4814130196cce2fdd52d8
727c8fd89b2c949de42c045dd425266753e4fb996c966359f0
4c1e6dba768cc1992441fc549c11d3102038e6e1901d99b81a
be5121b16800864260eeff240fe2256f5f52747581fd5e24d1
0aa4693cd04f539bc9fc0bdf27d367f8831451b51a896adb5a
9a2f18aacb13bd93881e8720322a4993964005a5edd1b9718d
98023586584b235c16035af90e38ccdb5ad79f415f27a651f3
6bf74cdb62f47192d4f3c27ef021e52bd6d5a9b6d2fce6f6ee
01bae1160da4312146621367dc52c14fb12ce1fb82700cd696
6812bb479cc4e5ea76c01a47a08360e2a9dc5a0d93495189de
f3f2fb44e5f73d573d2470faa8e87af9b66908e72010eb15b8
ebe82658d04546fbb8a4873025dadc5c2152cc897bd46dd059
b1fd00f086fb582f34ed846f0112baa3d177d09e033c91e41a
e060a721f8318af46ab4baaa656337cee9ed1a40e6b6d3aec4
