09441c422243b6bd4131e5fbf2675601c523efff822ab9ce5d
a22847d229fe4edf6af7fe7d9ff64d546c6679c064a8602582
60e27527e5e555963a22db4f937f0b6fef48cc8b589a99ff87
4cc31583d9b01f8df9827f0ce5fe45bcb05ff076af1d69c804
1a7ca801d5476f5131880e10c9ea7abca07c9c8f1c80f47673
f38aeee311b6637f168f5ad1aa984a00d539f29f032267ee45
db412a89823f0f6a205211ac92b50ec53d12e88b9fb0250042
90ebaf85b48b7b6ec6e5c8601670420e13f8322d5ae7d40abd
775e8c0d303e02cd2a8d3e3434104a1922e99e4d8d2ec66e4f
22a8cba119d852ff8dd177bcac15989bbaa2adcb31723ee71b
40135dc30e4332b8bc21d2d4df8415d3effcd16b6febf746af
0231580e5bf66d983e6d2db53d0d7fdd90a47ba6eb6813790b
e90ce79b744028b3849c453acb9123da497cbeda64349f8d77
5198dda4a971206f4dd82348151891331c2839e9a9a22bcf00
9f711f7e7bd277c432afc2dc1f45de2438b8baa6bfa1b17454
ee5c6b0aaee7891c8fbafece3a710b4c2f532078903628d112
76612d841fb0fc8edc1b01e1ae08a86f2073735a199b0f8992
9d2c603651d000460156e0985fa324596ace49089d6b39047b
069bf533618847246631d8ea5e22e0fbd7a759ca6140684c8a
08edfbfab74d6595888f1082cd621b3b71dc6efc72f0d71b36
4ac4057d3ce105a39ec2c9232727f0c0c19a62e222bfe26226
22042632788665c686b8fc65f3a010186a40b9a826910864b7
fa80d795c91b2e510a093aaf842b4d2a9c077a9d69038e92b5
43790392f41c1ebf6e971c57f78642ea99fc714f84976b8388
50293c9cea910f72e0b92799bb7dc3c76ce67207ed961695bb
a534c8f1f49d81b3903aff1fdf934d2ecc07c43dec158bb93d
f5c152a33acf40ca7d8dfb295c88fa4a33dae29fd053969745
5a6a9269c6de32ae050266f0dd5b4d2369012bad8c4bfad480
9a7109c4c5eaf65a33fff1f5e664e00c3a35aaa3ec2e436371
7e4ca832ca27f137f227c187de36abc881621be5ff8dd528a0
63c8fc7e9984c2116a159b140b25b0897233fa5492b4a702ba
4cc2d9171363a57ea65ba03360a6bce041d70040d1647ccbe3
0865ea8847b2c08fded31c8683a4b0401ef12c9631bfe39ca4
5267ac011bb234ec0d4a31e6a269b4c79ccff582da0d6b3b46
9a3f6211c461ae3be4687e357ae0331db52f0b9c278de2d3ac
a959a215cfdeae2acd5c184b2d33da15715fb91aab1f14f606
4620a2f165662bf4b7814619b911abda5a0f249c3c7e769529
858b34033cc85af3e74e93f7158950acca28b2f055d2406188
f9d0c4a497df09181daf06291e841354077a8f9c9e5240e28d
c5f2cf37d471a73a4416a156a5651cb09e18b474d38ba9b8fe
