791a9a8a0bf783f801992d04fed40600a55ccc8a6ba362bdaa
688620f70cac397b883a3fb2e25ceeed8caa9b67c3cb4507f4
2ff51e653fefa0cd74a880c2ab73808a6d3e1705659a281015
6ecb765dd29a125d00b6c1fbb3d40660de01152210ce734ee1
bd2412b9275f584f1d0302c99df5b9bede41541548065de58a
0154b63d08c80fbb1ebc88b88042eadcdebc7409751cbf3eba
7d2ecfc561f445c556547c47f7e2f04397cb507b78b9905be3
05be84bb0335a135acd8770846ef4c5ad2ba2dc8dd25799b7f
d31edb6af4c376dcf9da6ca8c5dc03e3565bdc0669e05e0746
235184304df0fa8fd82f8e7fad5233291d64594a45d210bb74
794da33d903f8a20b8854c026c22a41b34a5a7fc7af527cbc0
262de085fcd3f7e5fd29ff9877ec2e1d0dc6279b8a1059f610
b6963566303a33effed92327056a2d3b5e1868078ba7fb3ebf
7003c6e8cb0a2fdad286b171ee6e32a70e71e0fd3aa42a088d
df2aaeda29e0d78d53a9b1db95986b7727ea79ed2b070d06f8
0acbee36b22b57a404940d2d3329bc6d3153509e17265872b8
b19db8f304ae62723b944ef847a624e87cfc70643dc98da0f4
aaf9c552f5a450c8a242d95751ef349cf0984c51306cf39ee8
e52f5fd75698060ea2789e7cacd9afb71ad2d4716bb63b580f
8e04faec627cbd33c1c4ab37ae25967774324e0a2a00f17fd3
5c1987cfc80f2139633c5a809dba505d4d235df73e7765cd5b
81f154a0d2f22516581fba549fa713ed9e85d50f7c661f4cfb
6f736e7ad768f6ff9d9f582dedefe091b72d88354cbb68c5cd
aa27665c1bcdb29b1ee1b33b728ef5cad57e8ffe07b10b705b
fdabc18b02b17f7a1bcc1e84ffcb169ed190861b0bb3bd380c
f19a3e63e23f13c9cfd1169d52e847e909ff78a7e5a34fbf9c
51a295ba40c169341de1f739a20faab87d94a8b8f118132d1b
fc8bfc15171fef9fd3b5fef2ebeb30913170b856d2935d40c5
fb00aba524934f4152f2914526b40ede310d076f79953ba710
7f2419e6caf788bbe17410fc63b9b18b7a6f26aa968fd0559c
ca2aef0caf82b3431af858b6148198f1a52e8f09b2bd34e97b
338d5d878bb95e6c51a5cfb2161a4adad0383aff1e84d23d67
0f899e8505cfb9a427eb5c911c633135fe8f1acbcb9101d774
4a3319b4337fb3b43bea14ff1425e2d49545689e5cbcddb735
a5f747198cbe5a6dfef2032b3c0d2e93f8ade649b0207fabd0
bc7213ed293b8d82d09b5bf77f9411612dc6ade5800f35ab8c
ba979488a37c51f351bc41f641d2937cc6ea4c0f19d35c9c9a
2c0fce6e4cc56839331f9745bfb0369aac42c9e20c0a59c2c6
75d989e1815e148f3af54045ff6af97dfd4ddd6dacdb7c481f
b687ead79db529eba972c8ee75a71b6f18aec284fea4b45a3a
