e628e4f704f3554fac2f908caafba9a2a17cf32bc76d590ddf
25bdd19f74540ccae4d854c03d7fb6c9d044d98068bad988b2
690f7440b250a7371d77663db1e67ae57febb9fd98f67a3e46
6c3bbfe865a5500e643b707777e850329bb34972f65912d6ed
b3e726f7015f08c9a2a41b2e2cd4792b4d92b5cd2902305617
900437e3e81ed286e882091bafadc98308b8b5d21f8ad0e20c
3181da9bbec3782bf737df3f32c202fa105a57e79fd225bc37
2d484a3e6eec438402b8851cac8507f3f92c91b51cc87b8394
ba9033238db08f8ccc9b9f5bf2f3f59663de0e0b41b121244c
5d25f1aa1871ecadafda6b1378b7adbb1296c8ca0112745c61
07466569a4039a43501760da85072c7242912018435af11880
cadd1f36bb160f6539bdeed35b1de9ff7979b23c28333994ef
40946614d243f1bcfd05b064a6c6f735d43cc088ee809a6d18
c5532d7f4c3c05b5b7f8e23ddc6bd6591656af865be9da1f5b
f32a81c0abac92731dc33aa006e5a0e5fca3e391e3b7d9d1ec
473ac7de963eaabf6487ca5d5ab16cf2d09c7cbceae133ec89
565e5bcc8f1e7693af25fffb09e2f94064d67a3bf40d3cf963
4dc600e4e4eb1dbdf5876850be19cb506e54447baff1c316e3
e752a9532f91a0826b71ad5c4ceb8ce151cd0ca04321f30229
5168de1dcbb2d9087f0cbf19213daa4a8e9a0dbaea391ca0c5
bfca2ffff9e1203ea5442bf253f3f40ba97495d0c501f09bde
fcd1dcdf31d7e752521f103eef3d9a9b77ef49b086df3dcd6e
49722f887e9763c3bca5bacc67ae3bbc7671c52bfff2d19696
d213bff3f95301695fd980c74c8668702c13eab2ac78d9be2f
95728757f8001fec6eb3dd8fba4922fdeb2b4c2865e82b1058
cfd44b40536038a2b139f10c90846ff80447f522e06cc838d0
17ba45980a46ca7b28f0c4e345b86427b6fa885ab34984bc50
e37e16b28df3a3b2a5a0f122f62d3cdb785d41dd76dc175f50
d66f351576e947502ec76cedc504f1839a0f3e17067bba7d3e
7e7d2557a4404171c33c81d2f3619b9a36a9e794b5a56be5a5
477eeb6a254a37b2bee65a3e7a293ccc0bedf5d236c569e399
8ad4ccd858f2c0bbe399b8ffe22d63980b05eec7a6d5f679a2
816bd87c6706adb1f6efec2338288f187c129123dd3db595a0
6f160573b0c12ba0a5627d7c94818eff71cee5f3940bdb5e4b
38b59b5cafb7d75e20adac2796968487ab7b6927fd86b4eb55
8d4897be1c001ca0f622a327b1826eab86a39fb11fb434254c
87c64d2159dfbe2cc6e4635f3a7f77f8cff1731a31ff915fbd
9a25eab8610012d189ec81c9bf7a5647283ac0a10633263b27
a4c7c7d3800f6dab6c2b2c0bd071ca827d20a4a402151f8760
d97c8fc080b37075b8306c7fc4cfae8eabf2e03dab446094d5
