f683bbad4b676a4dcd067a6f7bd760f005fee2bad311bd3d25
1d70c7cd872acd9184efe8c127f4c11d8cb1cbc85c695a21df
7c366ed91dd364b31aa32e7407e658c5edd88313077ef48caa
f8349d0ae36a1b241e47169ae52fdd240c703cf2bccb3302eb
fad9bd5e3431627fcf1b2cfce49c95c9960e510271fdfa6085
4aa10f155208c2f894cb4e29b994ea2982f82ecc239fc5ddb9
c4d5311dabeea956f39586cc6fdb7e0266e69e103886dfa06d
7338db19abae6f07f28a1fc3a4ae05b631e11eb4935b772a59
efa3ecb1b5761a7f6ca7435d20d7e33f11e32431afc5f0fab7
6977e0a2340bfc545d471f42d32bc717df79cc7102fc2a218e
LES MOOCS SUR FUN SONT TROP FUN  
0d6fafc72914d6104dd006ebe4dbadb4355029e6129a919351
810dd7e2ebe7b77b6a7db887987a342711aefe3ca9c7153d58
6efce690a6acbd3c1f56cc0db45c8a77a39a4f59a606389042
1e547b252e67fa94a733db59d1db50d0abd7267a7baead123f
5ce026d069f68483778bdd3cbb72dc060224edab16db9eb91f
83da76be2bb6c4dae365892d61d34cf559cbf06e65506569ca
0b095c0839efbc41834a446d58f0c29c1e8ce29967b6bbefa1
9496ac832c3244d532f5d310f9ead98996da5f51f020bf70e7
5d214f2df767609bdbf86dc354d87cecc445534112aae62b60
26bb617ac9b7fc4912bdb01601af11f522b9b4281c99b9962
