fe7a8de60e4d66134ca4c42cfb6de3b58e33ee20eedaf8ef9a
aac9391bec0f699414daef2bb7ab6e83b28d756dac907e6cdc
1a9eba1a893c201b7ec389872e8fba6eddbcca8b1b7cddf047
a4ed13b15539152f4cc1143021895f42aca34b8c02d381568e
506efcb3bdf3c77ee4dc5aebe5f98756f66b29dda44e23e7b2
929d9c944940cebc7ea80e9a37f29718f47d06011161348a1c
a74304ed728b5343fabce3fdeee1fc9d12183ca4b86543bf00
4d273ec3d5b36576138edad8453085981b61b50ac1f3bf9cae
5c6a7ff1c317004e440683e86d1e5cc56345de612864dd4f7f
21281fb1ff258aad997125587a9a59e914c3d4f82f45017bdd
a85e7231da9ba2ce21ef4ab90abb0761fb25bfe87e7f171e81
b4405188ad1ad7d3fd45369c1d22565a16366fed8662af8c8e
6fd45731175a2aa2deab04a8f01fcc0e518addc0d523113782
09915f6541e6a2dc9d9e41e183f02e06511f6c6c2eb9b240b8
bd5d3b8165d9f74d7429735b77c7c8a18f4409c9e8ee189ac4
7c029333b0c50b9a57e3cf9ef19acd3c2456935d9bb8f7884c
6442fbf27c7a56ccde884fe9b6bb71faaa78c0191f5089e231
d96d2ae38ef717d3ff5ad868908631c9c8a30b4b83d746d4a7
92cd6bdd5c1af882bd9d96217ba4350162489a9a0269d4e44c
be20b95a09b72dfc6daf6a6d85f05448c5b314acdfdd1f87ea
8418362da92b3d37db6740f5687f4f5cad1a0d0f15ba049874
45d691b970f3e4b6a66280ba710d5289398ac6230b044fcf67
3429680fc65593f59d68298761305da6f1d68527e07a5e5a85
09483be8ffd5ba14a9e00f131825c8383209f4afb13fd607ea
3c111dd88527762a0c0a93d67e32751ab7671d6bb46c8174ec
d637115e3c1f2adfb07a46a1663a24783a0ff5494881190955
aea8a6de069436dd46965f199768ea495adfce12893b9094d5
5b11444a426dcf97bab574b46cb45af52abf0f8d2338989055
4dd0f0f36507f601b568bf62fc13070d19381807856d5571fe
69415c94f3e9528180b54dbe1f2205fce6f06dfddc47cc9868
ac69032238b3dc0820a862ce5e77a7842c498f1489fdcc6b82
efa2790e776be231387ac50384ad18aec35ddfe95bc3b23929
9cb3a343ea480cee30fd68bc7903a04e6ff16f560c8c929f35
0c5530598382ed38b09dfb8c10cc650c0f0030ab4bf4968e57
733cec5f41a0985c7023c291d40bb560b2908d00fdd61500d8
fb69dafc0776e703bad2a444ba4436c22a562961560bdbde0f
9086a447234829f1f2a376934ec95af66b1479e0025808ebfb
1b7d083d9883b0f512aa2819ef39b8ee15e99c9cebea27969e
66e0d9eb3e0c658257ba9386dd95fcdded01e2ebb5601d1066
e7103e21fbddfd5cec684504fc18bf2ed56aa9e2cb8808398b
